{
    "result":"success",
    "meta":{
       "page":1,
       "pages":2,
       "perpage":"10",
       "total":12
    },
    "data":[
       {
          "id":25051,
          "email_count":289,
          "company_id":61373,
          "month":"October",
          "created_at":"2020-10-01 15:44:50",
          "updated_at":"2020-10-21 11:57:41",
          "deleted_at":null,
          "year":2020,
          "maximum_quota":"1000"
       },
       {
          "id":25045,
          "email_count":153,
          "company_id":61373,
          "month":"September",
          "created_at":"2020-09-01 09:44:14",
          "updated_at":"2020-09-28 13:14:05",
          "deleted_at":null,
          "year":2020,
          "maximum_quota":"1000"
       },
       {
          "id":25038,
          "email_count":45,
          "company_id":61373,
          "month":"August",
          "created_at":"2020-08-05 03:02:31",
          "updated_at":"2020-08-31 03:34:24",
          "deleted_at":null,
          "year":2020,
          "maximum_quota":"1000"
       },
       {
          "id":25023,
          "email_count":82,
          "company_id":61373,
          "month":"July",
          "created_at":"2020-07-01 08:51:10",
          "updated_at":"2020-07-30 10:52:06",
          "deleted_at":null,
          "year":2020,
          "maximum_quota":"1000"
       },
       {
          "id":25016,
          "email_count":49,
          "company_id":61373,
          "month":"June",
          "created_at":"2020-06-02 02:54:46",
          "updated_at":"2020-06-30 07:05:46",
          "deleted_at":null,
          "year":2020,
          "maximum_quota":"1000"
       },
       {
          "id":25010,
          "email_count":104,
          "company_id":61373,
          "month":"May",
          "created_at":"2020-05-04 09:14:26",
          "updated_at":"2020-05-26 07:15:33",
          "deleted_at":null,
          "year":2020,
          "maximum_quota":"1000"
       },
       {
          "id":25007,
          "email_count":6,
          "company_id":61373,
          "month":"April",
          "created_at":"2020-04-07 06:42:20",
          "updated_at":"2020-04-07 07:13:38",
          "deleted_at":null,
          "year":2020,
          "maximum_quota":"1000"
       },
       {
          "id":25002,
          "email_count":55,
          "company_id":61373,
          "month":"March",
          "created_at":"2020-03-23 07:49:29",
          "updated_at":"2020-03-31 07:23:08",
          "deleted_at":null,
          "year":2020,
          "maximum_quota":"1000"
       },
       {
          "id":24970,
          "email_count":20,
          "company_id":61373,
          "month":"February",
          "created_at":"2020-02-03 10:24:07",
          "updated_at":"2020-02-27 08:56:47",
          "deleted_at":null,
          "year":2020,
          "maximum_quota":"1000"
       },
       {
          "id":24969,
          "email_count":40,
          "company_id":61373,
          "month":"January",
          "created_at":"2020-01-21 07:51:44",
          "updated_at":"2020-01-31 04:10:28",
          "deleted_at":null,
          "year":2020,
          "maximum_quota":"1000"
       }
    ]
 }