{
    "result":"success",
    "meta":{
       "page":1,
       "pages":7,
       "perpage":"10",
       "total":66
    },
    "data":[
       {
          "id":879,
          "title":"TR20201019113245 has been updated to Challenge",
          "message":"Please check your transaction TR20201019113245, on Transaction History ",
          "target":"testing@gmail.com",
          "company_id":61373,
          "status":2,
          "target_group":"-",
          "target_menu":"transaction-detail",
          "target_menu_id":"113245",
          "type":"Immediate",
          "send_after":null,
          "detail_status":"Completed",
          "created_at":"2020-10-20 14:32:38",
          "updated_at":"2020-10-20 07:32:38",
          "deleted_at":null,
          "target_title":"Transaction Detail",
          "status_text":"COMPLETE"
       },
       {
          "id":878,
          "title":"test ios",
          "message":"test ios",
          "target":"ios",
          "company_id":61373,
          "status":2,
          "target_group":"GOLD",
          "target_menu":"notif-list",
          "target_menu_id":null,
          "type":"Immediate",
          "send_after":null,
          "detail_status":"Completed",
          "created_at":"2020-10-20 10:47:18",
          "updated_at":"2020-10-20 03:47:18",
          "deleted_at":null,
          "target_title":"Notification List",
          "status_text":"COMPLETE"
       },
       {
          "id":877,
          "title":"test",
          "message":"testing&nbsp;&nbsp;&nbsp;&nbsp;",
          "target":"android",
          "company_id":61373,
          "status":1,
          "target_group":"Guest",
          "target_menu":"notif-list",
          "target_menu_id":null,
          "type":"Immediate",
          "send_after":null,
          "detail_status":"Pending",
          "created_at":"2020-10-20 10:46:33",
          "updated_at":"2020-10-20 03:46:33",
          "deleted_at":null,
          "target_title":"Notification List",
          "status_text":"IN PROCESS"
       },
       {
          "id":876,
          "title":"kiii",
          "message":"kiiii",
          "target":"android",
          "company_id":61373,
          "status":2,
          "target_group":"-",
          "target_menu":"notif-list",
          "target_menu_id":null,
          "type":"Immediate",
          "send_after":null,
          "detail_status":"Completed",
          "created_at":"2020-10-16 15:15:13",
          "updated_at":"2020-10-16 08:15:14",
          "deleted_at":null,
          "target_title":"Notification List",
          "status_text":"COMPLETE"
       },
       {
          "id":875,
          "title":"You get a voucher",
          "message":"16Oct-TNFvgZ please check in my voucher",
          "target":"rizki.setiawan@compro.id",
          "company_id":61373,
          "status":2,
          "target_group":"-",
          "target_menu":"voucher-detail",
          "target_menu_id":null,
          "type":"Immediate",
          "send_after":null,
          "detail_status":"Completed",
          "created_at":"2020-10-16 15:11:53",
          "updated_at":"2020-10-16 08:11:53",
          "deleted_at":null,
          "target_title":"Voucher Detail",
          "status_text":"COMPLETE"
       },
       {
          "id":874,
          "title":"TR20201016113232 has been updated to Completed",
          "message":"Please check your transaction TR20201016113232, on Transaction History ",
          "target":"robimaulanatamfansekali@gmail.com",
          "company_id":61373,
          "status":2,
          "target_group":"-",
          "target_menu":"transaction-detail",
          "target_menu_id":"113232",
          "type":"Immediate",
          "send_after":null,
          "detail_status":"Completed",
          "created_at":"2020-10-16 15:11:49",
          "updated_at":"2020-10-16 08:11:49",
          "deleted_at":null,
          "target_title":"Transaction Detail",
          "status_text":"COMPLETE"
       },
       {
          "id":873,
          "title":"oi kiii",
          "message":"kiiiiii",
          "target":"all",
          "company_id":61373,
          "status":2,
          "target_group":"-",
          "target_menu":"post",
          "target_menu_id":"1789516",
          "type":"Immediate",
          "send_after":null,
          "detail_status":"Completed",
          "created_at":"2020-10-16 15:10:27",
          "updated_at":"2020-10-16 08:10:29",
          "deleted_at":null,
          "target_title":"Cereal",
          "status_text":"COMPLETE"
       },
       {
          "id":872,
          "title":"teste",
          "message":"testtttt",
          "target":"all",
          "company_id":61373,
          "status":2,
          "target_group":"-",
          "target_menu":"term",
          "target_menu_id":"1709699",
          "type":"Immediate",
          "send_after":null,
          "detail_status":"Completed",
          "created_at":"2020-10-16 15:09:46",
          "updated_at":"2020-10-16 08:09:48",
          "deleted_at":null,
          "target_title":"NEW product",
          "status_text":"COMPLETE"
       },
       {
          "id":871,
          "title":"TR20201016113229 has been updated to Completed",
          "message":"Please check your transaction TR20201016113229, on Transaction History ",
          "target":"willsen.office@gmail.com",
          "company_id":61373,
          "status":2,
          "target_group":"-",
          "target_menu":"transaction-detail",
          "target_menu_id":"113229",
          "type":"Immediate",
          "send_after":null,
          "detail_status":"Completed",
          "created_at":"2020-10-16 14:56:29",
          "updated_at":"2020-10-16 07:56:29",
          "deleted_at":null,
          "target_title":"Transaction Detail",
          "status_text":"COMPLETE"
       },
       {
          "id":870,
          "title":"TR20201016113229 has been updated to Delivery",
          "message":"Please check your transaction TR20201016113229, on Transaction History ",
          "target":"willsen.office@gmail.com",
          "company_id":61373,
          "status":2,
          "target_group":"-",
          "target_menu":"transaction-detail",
          "target_menu_id":"113229",
          "type":"Immediate",
          "send_after":null,
          "detail_status":"Completed",
          "created_at":"2020-10-16 14:56:02",
          "updated_at":"2020-10-16 07:56:02",
          "deleted_at":null,
          "target_title":"Transaction Detail",
          "status_text":"COMPLETE"
       }
    ]
 }