{
   "result":"success",
   "meta":{
      "page":1,
      "pages":3,
      "perpage":"10",
      "total":30
   },
   "data":[
      {
         "id":289183,
         "username":"rizki2",
         "email":"rizki2@gmail.com",
         "device_id":"",
         "approved":1,
         "referral_code":"PD4UROQT",
         "company_user_group_id":null,
         "company_id":61373,
         "join_date":"2020-10-20 15:31:20",
         "primary":null,
         "manual_register":null,
         "social_google":null,
         "social_fb":null,
         "created_at":"2020-10-20 15:31:20",
         "updated_at":"2020-10-20 15:31:20",
         "deleted_at":null,
         "search_selectable":"Testing 2",
         "membership_member_code":"1662645114135899",
         "company_user_group":null
      },
      {
         "id":289182,
         "username":"rizki1",
         "email":"rizki1@gmail.com",
         "device_id":"",
         "approved":1,
         "referral_code":"S6YB0U96",
         "company_user_group_id":null,
         "company_id":61373,
         "join_date":"2020-10-20 15:29:32",
         "primary":null,
         "manual_register":null,
         "social_google":null,
         "social_fb":null,
         "created_at":"2020-10-20 15:29:32",
         "updated_at":"2020-10-20 15:29:32",
         "deleted_at":null,
         "search_selectable":"Testing 3",
         "membership_member_code":"8031932489776393",
         "company_user_group":null
      },
      {
         "id":288413,
         "username":"guest.checkout1",
         "email":"guest.checkout1@compro.id",
         "device_id":"",
         "approved":1,
         "referral_code":"X52IJJGV",
         "company_user_group_id":null,
         "company_id":61373,
         "join_date":"2020-10-20 11:56:11",
         "primary":null,
         "manual_register":null,
         "social_google":null,
         "social_fb":null,
         "created_at":"2020-10-20 11:56:11",
         "updated_at":"2020-10-20 11:56:11",
         "deleted_at":null,
         "membership_member_code":"8294909184913135",
         "company_user_group":null
      },
      {
         "id":288411,
         "username":"guest.checkout",
         "email":"guest.checkout@compro.id",
         "device_id":"",
         "approved":1,
         "referral_code":"3SPF1UHL",
         "company_user_group_id":12394,
         "company_id":61373,
         "join_date":null,
         "primary":null,
         "manual_register":null,
         "social_google":null,
         "social_fb":null,
         "created_at":"2020-10-20 11:14:31",
         "updated_at":"2020-10-21 00:38:59",
         "deleted_at":null,
         "membership_member_code":"2241265363725478",
         "loyalty_connect":"NO",
         "default_address_id_id":"151",
         "company_user_group":{
            "id":12394,
            "company_id":61373,
            "code":"guest",
            "name":"Guest",
            "description":"User Group for every App Users, either Logged In or Not.",
            "created_at":"2019-11-12 04:48:12",
            "updated_at":"2019-11-12 04:48:12",
            "deleted_at":null
         }
      },
      {
         "id":288408,
         "username":"robi",
         "email":"robimaulanatamfansekali@gmail.com",
         "device_id":"9caed7b2c48a9a3a",
         "approved":1,
         "referral_code":"CA5RTB0O",
         "company_user_group_id":12394,
         "company_id":61373,
         "join_date":"2020-10-16 14:46:49",
         "primary":null,
         "manual_register":null,
         "social_google":null,
         "social_fb":null,
         "created_at":"2020-10-16 14:46:49",
         "updated_at":"2020-10-16 14:47:21",
         "deleted_at":null,
         "membership_member_code":"4660365478014228",
         "loyalty_connect":"NO",
         "default_address_id_id":"151",
         "admin_notes":"",
         "company_user_group":{
            "id":12394,
            "company_id":61373,
            "code":"guest",
            "name":"Guest",
            "description":"User Group for every App Users, either Logged In or Not.",
            "created_at":"2019-11-12 04:48:12",
            "updated_at":"2019-11-12 04:48:12",
            "deleted_at":null
         }
      },
      {
         "id":288404,
         "username":"rizki compro",
         "email":"rizki.setiawan@compro.id",
         "device_id":"9caed7b2c48a9a3a",
         "approved":1,
         "referral_code":"NLFKTX24",
         "company_user_group_id":null,
         "company_id":61373,
         "join_date":"2020-10-16 14:36:58",
         "primary":null,
         "manual_register":null,
         "social_google":null,
         "social_fb":null,
         "created_at":"2020-10-16 14:36:58",
         "updated_at":"2020-10-16 14:36:58",
         "deleted_at":null,
         "membership_member_code":"9096112141592344",
         "company_user_group":null
      },
      {
         "id":288400,
         "username":"apa",
         "email":"apa@gmail.com",
         "device_id":"9caed7b2c48a9a3a",
         "approved":1,
         "referral_code":"YWPDUJ3K",
         "company_user_group_id":12394,
         "company_id":61373,
         "join_date":"2020-10-02 14:26:25",
         "primary":null,
         "manual_register":null,
         "social_google":null,
         "social_fb":null,
         "created_at":"2020-10-02 14:26:25",
         "updated_at":"2020-10-02 14:26:38",
         "deleted_at":null,
         "membership_member_code":"9241933326642495",
         "loyalty_connect":"NO",
         "company_user_group":{
            "id":12394,
            "company_id":61373,
            "code":"guest",
            "name":"Guest",
            "description":"User Group for every App Users, either Logged In or Not.",
            "created_at":"2019-11-12 04:48:12",
            "updated_at":"2019-11-12 04:48:12",
            "deleted_at":null
         }
      },
      {
         "id":288393,
         "username":"willsen",
         "email":"willsen.office@gmail.com",
         "device_id":"657a859e2ebb7838",
         "approved":1,
         "referral_code":"JPFJMLO3",
         "company_user_group_id":12394,
         "company_id":61373,
         "join_date":"2020-09-15 03:35:38",
         "primary":null,
         "manual_register":null,
         "social_google":null,
         "social_fb":null,
         "created_at":"2020-09-15 03:35:38",
         "updated_at":"2020-10-16 13:32:18",
         "deleted_at":null,
         "membership_member_code":"2208787488063965",
         "loyalty_connect":"NO",
         "default_address_id_id":"147",
         "company_user_group":{
            "id":12394,
            "company_id":61373,
            "code":"guest",
            "name":"Guest",
            "description":"User Group for every App Users, either Logged In or Not.",
            "created_at":"2019-11-12 04:48:12",
            "updated_at":"2019-11-12 04:48:12",
            "deleted_at":null
         }
      },
      {
         "id":288386,
         "username":"admin",
         "email":"admin@compro.id",
         "device_id":"",
         "approved":1,
         "referral_code":"4I5PEO8M",
         "company_user_group_id":12394,
         "company_id":61373,
         "join_date":"2020-09-02 05:07:06",
         "primary":null,
         "manual_register":null,
         "social_google":null,
         "social_fb":null,
         "created_at":"2020-09-02 05:07:06",
         "updated_at":"2020-09-02 05:07:15",
         "deleted_at":null,
         "membership_member_code":"6549411957501806",
         "loyalty_connect":"NO",
         "company_user_group":{
            "id":12394,
            "company_id":61373,
            "code":"guest",
            "name":"Guest",
            "description":"User Group for every App Users, either Logged In or Not.",
            "created_at":"2019-11-12 04:48:12",
            "updated_at":"2019-11-12 04:48:12",
            "deleted_at":null
         }
      },
      {
         "id":288361,
         "username":"rizki last testing",
         "email":"rizkilasttesting@gmail.com",
         "device_id":"9caed7b2c48a9a3a",
         "approved":1,
         "referral_code":"57LZRHZN",
         "company_user_group_id":12394,
         "company_id":61373,
         "join_date":"2020-08-12 04:41:27",
         "primary":null,
         "manual_register":null,
         "social_google":null,
         "social_fb":null,
         "created_at":"2020-08-12 04:41:27",
         "updated_at":"2020-08-24 06:26:13",
         "deleted_at":null,
         "membership_member_code":"3591596272093663",
         "loyalty_connect":"NO",
         "company_user_group":{
            "id":12394,
            "company_id":61373,
            "code":"guest",
            "name":"Guest",
            "description":"User Group for every App Users, either Logged In or Not.",
            "created_at":"2019-11-12 04:48:12",
            "updated_at":"2019-11-12 04:48:12",
            "deleted_at":null
         }
      }
   ]
}